Suite/Test/Step Name,Browser,Description,Tag,Start time,End time,Duration,Status
Login,Chrome 113.0.0.0,,,2023-05-23 19:57:00,2023-05-23 19:57:24,23.976s,FAILED
,,,,,,,
Test Cases/Login,Chrome 113.0.0.0,,,2023-05-23 19:57:01,2023-05-23 19:57:07,6.306s,FAILED
"openBrowser("""")",Chrome 113.0.0.0,,,2023-05-23 19:57:01,2023-05-23 19:57:03,2.298s,PASSED
"navigateToUrl(""https://www.saucedemo.com/"")",Chrome 113.0.0.0,,,2023-05-23 19:57:03,2023-05-23 19:57:06,2.189s,PASSED
"setText(findTestObject(""Object Repository/input_Swag Labs_user-name""), Username)",Chrome 113.0.0.0,,,2023-05-23 19:57:06,2023-05-23 19:57:06,0.865s,PASSED
"setEncryptedText(findTestObject(""Password""), Password)",Chrome 113.0.0.0,,,2023-05-23 19:57:06,2023-05-23 19:57:07,0.601s,FAILED
,,,,,,,
Test Cases/Login,Chrome 113.0.0.0,,,2023-05-23 19:57:07,2023-05-23 19:57:13,5.956s,FAILED
"openBrowser("""")",Chrome 113.0.0.0,,,2023-05-23 19:57:07,2023-05-23 19:57:10,2.770s,PASSED
"navigateToUrl(""https://www.saucedemo.com/"")",Chrome 113.0.0.0,,,2023-05-23 19:57:10,2023-05-23 19:57:12,2.079s,PASSED
"setText(findTestObject(""Object Repository/input_Swag Labs_user-name""), Username)",Chrome 113.0.0.0,,,2023-05-23 19:57:12,2023-05-23 19:57:13,0.674s,PASSED
"setEncryptedText(findTestObject(""Password""), Password)",Chrome 113.0.0.0,,,2023-05-23 19:57:13,2023-05-23 19:57:13,0.417s,FAILED
,,,,,,,
Test Cases/Login,Chrome 113.0.0.0,,,2023-05-23 19:57:13,2023-05-23 19:57:19,6.019s,FAILED
"openBrowser("""")",Chrome 113.0.0.0,,,2023-05-23 19:57:13,2023-05-23 19:57:15,2.065s,PASSED
"navigateToUrl(""https://www.saucedemo.com/"")",Chrome 113.0.0.0,,,2023-05-23 19:57:15,2023-05-23 19:57:18,2.850s,PASSED
"setText(findTestObject(""Object Repository/input_Swag Labs_user-name""), Username)",Chrome 113.0.0.0,,,2023-05-23 19:57:18,2023-05-23 19:57:19,0.680s,PASSED
"setEncryptedText(findTestObject(""Password""), Password)",Chrome 113.0.0.0,,,2023-05-23 19:57:19,2023-05-23 19:57:19,0.411s,FAILED
,,,,,,,
Test Cases/Login,Chrome 113.0.0.0,,,2023-05-23 19:57:19,2023-05-23 19:57:24,5.292s,FAILED
"openBrowser("""")",Chrome 113.0.0.0,,,2023-05-23 19:57:19,2023-05-23 19:57:21,1.932s,PASSED
"navigateToUrl(""https://www.saucedemo.com/"")",Chrome 113.0.0.0,,,2023-05-23 19:57:21,2023-05-23 19:57:23,2.206s,PASSED
"setText(findTestObject(""Object Repository/input_Swag Labs_user-name""), Username)",Chrome 113.0.0.0,,,2023-05-23 19:57:23,2023-05-23 19:57:24,0.713s,PASSED
"setEncryptedText(findTestObject(""Password""), Password)",Chrome 113.0.0.0,,,2023-05-23 19:57:24,2023-05-23 19:57:24,0.428s,FAILED
